County,Proportion_with_Internet
Mombasa,13
Kwale,4.3
Kilifi,5.5
Tana River,2.7
Lamu,4.2
Taita-Taveta,6.3
Garissa,2.6
Wajir,1.4
Mandera,1.5
Marsabit,2.5
Isiolo,4.5
Meru,4.3
Tharaka-Nithi,4.9
Embu,6.3
Kitui,3.5
Machakos,9.4
Makueni,4.0
Nyandarua,4.6
Nyeri,8.6
Kirinyaga,5.9
Murang'a,4.9
Kiambu,19.6
Turkana,2.1
West Pokot,1.4
Samburu,3.2
Trans-Nzoia,4.9
Uasin Gishu,10.1
Elgeyo-Marakwet,2.0
Nandi,3.6
Baringo,3.2
Laikipia,6.9
Nakuru,9.6
Narok,2.7
Kajiado,14.6
Kericho,4.7
Bomet,3.3
Kakamega,4.3
Vihiga,4.3
Bungoma,4.1
Busia,3.7
Siaya,4.2
Kisumu,9.8
Homa Bay,4.1
Migori,4.2
Kisii,5.0
Nyamira,3.7
Nairobi (County),22.7
